%YAML 1.1
%TAG !u! tag:unity3d.com,2011:
--- !u!114 &11400000
MonoBehaviour:
  m_ObjectHideFlags: 0
  m_CorrespondingSourceObject: {fileID: 0}
  m_PrefabInstance: {fileID: 0}
  m_PrefabAsset: {fileID: 0}
  m_GameObject: {fileID: 0}
  m_Enabled: 1
  m_EditorHideFlags: 0
  m_Script: {fileID: 11500000, guid: 53062aab55adb95448c251a4f54e9dd5, type: 3}
  m_Name: TripleWeapon
  m_EditorClassIdentifier: 
  _normalAttack:
    _dmg: 30
    _shootNumberPerClick: 6
    _knockBack: 1
    _delay: 0.2
    _isSpread: 1
    _isOneAlwaysMiddle: 0
    _spreadAngle:
      x: 3
      y: 3
    _isShootProjectole: 0
    _hp: 0
    _lifeTime: 0
    _speed: 0
    _preFab: {fileID: 0}
    _isRaycast: 1
    _distance: 25
    _mask:
      serializedVersion: 2
      m_Bits: 2048
    _shotSound: LaserPun
  _specialAttack:
    _dmg: 50
    _shootNumberPerClick: 3
    _knockBack: 5
    _delay: 1
    _isSpread: 1
    _isOneAlwaysMiddle: 0
    _spreadAngle:
      x: 1
      y: 1
    _isShootProjectole: 1
    _hp: 15
    _lifeTime: 2
    _speed: 75
    _preFab: {fileID: 1574881005118904591, guid: e9964f55aa97f2d4d962478e029bfe24, type: 3}
    _isRaycast: 0
    _distance: 0
    _mask:
      serializedVersion: 2
      m_Bits: 0
    _shotSound: Shotgun
  _weaponPrefab: {fileID: 9161812913448146375, guid: c0a8704769773b542b1351c15b54a6aa, type: 3}
